%YAML 1.1
%TAG !u! tag:unity3d.com,2011:
--- !u!114 &11400000
MonoBehaviour:
  m_ObjectHideFlags: 0
  m_CorrespondingSourceObject: {fileID: 0}
  m_PrefabInstance: {fileID: 0}
  m_PrefabAsset: {fileID: 0}
  m_GameObject: {fileID: 0}
  m_Enabled: 1
  m_EditorHideFlags: 0
  m_Script: {fileID: 11500000, guid: f3e5d0ef2acdd0448aeb545f50e374db, type: 3}
  m_Name: Question1
  m_EditorClassIdentifier: 
  question: Jaki mobilny system operacyjny bazuje na Linuxie?
  answers:
  - Debian
  - IOS
  - Android
  - CentOS
  correctAnswer: 3
